lab_2_part_2/lab_2_part_2.sim/sim_1/behav/xsim/simulate.log
Time resolution is 1 ps
time=   5.0 ns  A=0000 + B=0000  K=0  ||  Carry_Out=0  Output=0000
time=  10.0 ns  A=0001 + B=0001  K=0  ||  Carry_Out=0  Output=0010
time=  15.0 ns  A=0010 + B=0010  K=0  ||  Carry_Out=0  Output=0100
time=  20.0 ns  A=0011 + B=0011  K=0  ||  Carry_Out=0  Output=0110
time=  25.0 ns  A=0100 + B=0100  K=0  ||  Carry_Out=0  Output=1000
time=  30.0 ns  A=0101 + B=0101  K=0  ||  Carry_Out=0  Output=1010
time=  35.0 ns  A=0110 + B=0110  K=0  ||  Carry_Out=0  Output=1100
time=  40.0 ns  A=0111 + B=0111  K=0  ||  Carry_Out=0  Output=1110
time=  45.0 ns  A=1000 + B=1000  K=0  ||  Carry_Out=1  Output=0000
time=  50.0 ns  A=1001 + B=1001  K=0  ||  Carry_Out=1  Output=0010
time=  55.0 ns  A=1010 + B=1010  K=0  ||  Carry_Out=1  Output=0100
time=  60.0 ns  A=1011 + B=1011  K=0  ||  Carry_Out=1  Output=0110
time=  65.0 ns  A=1100 + B=1100  K=0  ||  Carry_Out=1  Output=1000
time=  70.0 ns  A=1101 + B=1101  K=0  ||  Carry_Out=1  Output=1010
time=  75.0 ns  A=1110 + B=1110  K=0  ||  Carry_Out=1  Output=1100
time=  80.0 ns  A=1111 + B=1111  K=0  ||  Carry_Out=1  Output=1110
time=  85.0 ns  A=0000 + B=0000  K=0  ||  Carry_Out=0  Output=0000
time=  90.0 ns  A=0001 + B=0001  K=0  ||  Carry_Out=0  Output=0010
time=  95.0 ns  A=0010 + B=0010  K=0  ||  Carry_Out=0  Output=0100
time= 100.0 ns  A=0011 + B=0011  K=0  ||  Carry_Out=0  Output=0110
time= 105.0 ns  A=0100 + B=0100  K=0  ||  Carry_Out=0  Output=1000
time= 110.0 ns  A=0101 + B=0101  K=0  ||  Carry_Out=0  Output=1010
time= 115.0 ns  A=0110 + B=0110  K=0  ||  Carry_Out=0  Output=1100
time= 120.0 ns  A=0111 + B=0111  K=0  ||  Carry_Out=0  Output=1110
time= 125.0 ns  A=1000 + B=1000  K=0  ||  Carry_Out=1  Output=0000
time= 130.0 ns  A=1001 + B=1001  K=0  ||  Carry_Out=1  Output=0010
time= 135.0 ns  A=1010 + B=1010  K=0  ||  Carry_Out=1  Output=0100
time= 140.0 ns  A=1011 + B=1011  K=0  ||  Carry_Out=1  Output=0110
time= 145.0 ns  A=1100 + B=1100  K=0  ||  Carry_Out=1  Output=1000
time= 150.0 ns  A=1101 + B=1101  K=0  ||  Carry_Out=1  Output=1010
time= 155.0 ns  A=1110 + B=1110  K=0  ||  Carry_Out=1  Output=1100
time= 160.0 ns  A=1111 + B=1111  K=0  ||  Carry_Out=1  Output=1110
time= 165.0 ns  A=0000 + B=0000  K=0  ||  Carry_Out=0  Output=0000
time= 170.0 ns  A=0001 + B=0001  K=0  ||  Carry_Out=0  Output=0010
time= 175.0 ns  A=0010 + B=0010  K=0  ||  Carry_Out=0  Output=0100
time= 180.0 ns  A=0011 + B=0011  K=0  ||  Carry_Out=0  Output=0110
time= 185.0 ns  A=0100 + B=0100  K=0  ||  Carry_Out=0  Output=1000
time= 190.0 ns  A=0101 + B=0101  K=0  ||  Carry_Out=0  Output=1010
time= 195.0 ns  A=0110 + B=0110  K=0  ||  Carry_Out=0  Output=1100
time= 200.0 ns  A=0111 + B=0111  K=0  ||  Carry_Out=0  Output=1110
time= 205.0 ns  A=1000 + B=1000  K=0  ||  Carry_Out=1  Output=0000
time= 210.0 ns  A=1001 + B=1001  K=0  ||  Carry_Out=1  Output=0010
time= 215.0 ns  A=1010 + B=1010  K=0  ||  Carry_Out=1  Output=0100
time= 220.0 ns  A=1011 + B=1011  K=0  ||  Carry_Out=1  Output=0110
time= 225.0 ns  A=1100 + B=1100  K=0  ||  Carry_Out=1  Output=1000
time= 230.0 ns  A=1101 + B=1101  K=0  ||  Carry_Out=1  Output=1010
time= 235.0 ns  A=1110 + B=1110  K=0  ||  Carry_Out=1  Output=1100
time= 240.0 ns  A=1111 + B=1111  K=0  ||  Carry_Out=1  Output=1110
time= 245.0 ns  A=0000 + B=0000  K=0  ||  Carry_Out=0  Output=0000
time= 250.0 ns  A=0001 + B=0001  K=0  ||  Carry_Out=0  Output=0010
time= 255.0 ns  A=0010 + B=0010  K=0  ||  Carry_Out=0  Output=0100
time= 260.0 ns  A=0011 + B=0011  K=0  ||  Carry_Out=0  Output=0110
time= 265.0 ns  A=0100 + B=0100  K=0  ||  Carry_Out=0  Output=1000
time= 270.0 ns  A=0101 + B=0101  K=0  ||  Carry_Out=0  Output=1010
time= 275.0 ns  A=0110 + B=0110  K=0  ||  Carry_Out=0  Output=1100
time= 280.0 ns  A=0111 + B=0111  K=0  ||  Carry_Out=0  Output=1110
time= 285.0 ns  A=1000 + B=1000  K=0  ||  Carry_Out=1  Output=0000
time= 290.0 ns  A=1001 + B=1001  K=0  ||  Carry_Out=1  Output=0010
time= 295.0 ns  A=1010 + B=1010  K=0  ||  Carry_Out=1  Output=0100
time= 300.0 ns  A=1011 + B=1011  K=0  ||  Carry_Out=1  Output=0110
time= 305.0 ns  A=1100 + B=1100  K=0  ||  Carry_Out=1  Output=1000
time= 310.0 ns  A=1101 + B=1101  K=0  ||  Carry_Out=1  Output=1010
time= 315.0 ns  A=1110 + B=1110  K=0  ||  Carry_Out=1  Output=1100
time= 320.0 ns  A=1111 + B=1111  K=0  ||  Carry_Out=1  Output=1110
time= 325.0 ns  A=0000 + B=0000  K=0  ||  Carry_Out=0  Output=0000
time= 330.0 ns  A=0001 + B=0001  K=0  ||  Carry_Out=0  Output=0010
time= 335.0 ns  A=0010 + B=0010  K=0  ||  Carry_Out=0  Output=0100
time= 340.0 ns  A=0011 + B=0011  K=0  ||  Carry_Out=0  Output=0110
time= 345.0 ns  A=0100 + B=0100  K=0  ||  Carry_Out=0  Output=1000
time= 350.0 ns  A=0101 + B=0101  K=0  ||  Carry_Out=0  Output=1010
time= 355.0 ns  A=0110 + B=0110  K=0  ||  Carry_Out=0  Output=1100
time= 360.0 ns  A=0111 + B=0111  K=0  ||  Carry_Out=0  Output=1110
time= 365.0 ns  A=1000 + B=1000  K=0  ||  Carry_Out=1  Output=0000
time= 370.0 ns  A=1001 + B=1001  K=0  ||  Carry_Out=1  Output=0010
time= 375.0 ns  A=1010 + B=1010  K=0  ||  Carry_Out=1  Output=0100
time= 380.0 ns  A=1011 + B=1011  K=0  ||  Carry_Out=1  Output=0110
time= 385.0 ns  A=1100 + B=1100  K=0  ||  Carry_Out=1  Output=1000
time= 390.0 ns  A=1101 + B=1101  K=0  ||  Carry_Out=1  Output=1010
time= 395.0 ns  A=1110 + B=1110  K=0  ||  Carry_Out=1  Output=1100
time= 400.0 ns  A=1111 + B=1111  K=0  ||  Carry_Out=1  Output=1110
time= 405.0 ns  A=0000 + B=0000  K=0  ||  Carry_Out=0  Output=0000
time= 410.0 ns  A=0001 + B=0001  K=0  ||  Carry_Out=0  Output=0010
time= 415.0 ns  A=0010 + B=0010  K=0  ||  Carry_Out=0  Output=0100
time= 420.0 ns  A=0011 + B=0011  K=0  ||  Carry_Out=0  Output=0110
time= 425.0 ns  A=0100 + B=0100  K=0  ||  Carry_Out=0  Output=1000
time= 430.0 ns  A=0101 + B=0101  K=0  ||  Carry_Out=0  Output=1010
time= 435.0 ns  A=0110 + B=0110  K=0  ||  Carry_Out=0  Output=1100
time= 440.0 ns  A=0111 + B=0111  K=0  ||  Carry_Out=0  Output=1110
time= 445.0 ns  A=1000 + B=1000  K=0  ||  Carry_Out=1  Output=0000
time= 450.0 ns  A=1001 + B=1001  K=0  ||  Carry_Out=1  Output=0010
time= 455.0 ns  A=1010 + B=1010  K=0  ||  Carry_Out=1  Output=0100
time= 460.0 ns  A=1011 + B=1011  K=0  ||  Carry_Out=1  Output=0110
time= 465.0 ns  A=1100 + B=1100  K=0  ||  Carry_Out=1  Output=1000
time= 470.0 ns  A=1101 + B=1101  K=0  ||  Carry_Out=1  Output=1010
time= 475.0 ns  A=1110 + B=1110  K=0  ||  Carry_Out=1  Output=1100
time= 480.0 ns  A=1111 + B=1111  K=0  ||  Carry_Out=1  Output=1110
time= 485.0 ns  A=0000 + B=0000  K=0  ||  Carry_Out=0  Output=0000
time= 490.0 ns  A=0001 + B=0001  K=0  ||  Carry_Out=0  Output=0010
time= 495.0 ns  A=0010 + B=0010  K=0  ||  Carry_Out=0  Output=0100
time= 500.0 ns  A=0011 + B=0011  K=0  ||  Carry_Out=0  Output=0110
time= 505.0 ns  A=0100 + B=0100  K=0  ||  Carry_Out=0  Output=1000
time= 510.0 ns  A=0101 + B=0101  K=0  ||  Carry_Out=0  Output=1010
time= 515.0 ns  A=0110 + B=0110  K=0  ||  Carry_Out=0  Output=1100
time= 520.0 ns  A=0111 + B=0111  K=0  ||  Carry_Out=0  Output=1110
time= 525.0 ns  A=1000 + B=1000  K=0  ||  Carry_Out=1  Output=0000
time= 530.0 ns  A=1001 + B=1001  K=0  ||  Carry_Out=1  Output=0010
time= 535.0 ns  A=1010 + B=1010  K=0  ||  Carry_Out=1  Output=0100
time= 540.0 ns  A=1011 + B=1011  K=0  ||  Carry_Out=1  Output=0110
time= 545.0 ns  A=1100 + B=1100  K=0  ||  Carry_Out=1  Output=1000
time= 550.0 ns  A=1101 + B=1101  K=0  ||  Carry_Out=1  Output=1010
time= 555.0 ns  A=1110 + B=1110  K=0  ||  Carry_Out=1  Output=1100
time= 560.0 ns  A=1111 + B=1111  K=0  ||  Carry_Out=1  Output=1110
time= 565.0 ns  A=0000 + B=0000  K=0  ||  Carry_Out=0  Output=0000
time= 570.0 ns  A=0001 + B=0001  K=0  ||  Carry_Out=0  Output=0010
time= 575.0 ns  A=0010 + B=0010  K=0  ||  Carry_Out=0  Output=0100
time= 580.0 ns  A=0011 + B=0011  K=0  ||  Carry_Out=0  Output=0110
time= 585.0 ns  A=0100 + B=0100  K=0  ||  Carry_Out=0  Output=1000
time= 590.0 ns  A=0101 + B=0101  K=0  ||  Carry_Out=0  Output=1010
time= 595.0 ns  A=0110 + B=0110  K=0  ||  Carry_Out=0  Output=1100
time= 600.0 ns  A=0111 + B=0111  K=0  ||  Carry_Out=0  Output=1110
time= 605.0 ns  A=1000 + B=1000  K=0  ||  Carry_Out=1  Output=0000
time= 610.0 ns  A=1001 + B=1001  K=0  ||  Carry_Out=1  Output=0010
time= 615.0 ns  A=1010 + B=1010  K=0  ||  Carry_Out=1  Output=0100
time= 620.0 ns  A=1011 + B=1011  K=0  ||  Carry_Out=1  Output=0110
time= 625.0 ns  A=1100 + B=1100  K=0  ||  Carry_Out=1  Output=1000
time= 630.0 ns  A=1101 + B=1101  K=0  ||  Carry_Out=1  Output=1010
time= 635.0 ns  A=1110 + B=1110  K=0  ||  Carry_Out=1  Output=1100
time= 640.0 ns  A=1111 + B=1111  K=0  ||  Carry_Out=1  Output=1110
time= 645.0 ns  A=0000 + B=0000  K=0  ||  Carry_Out=0  Output=0000
time= 650.0 ns  A=0001 + B=0001  K=0  ||  Carry_Out=0  Output=0010
time= 655.0 ns  A=0010 + B=0010  K=0  ||  Carry_Out=0  Output=0100
time= 660.0 ns  A=0011 + B=0011  K=0  ||  Carry_Out=0  Output=0110
time= 665.0 ns  A=0100 + B=0100  K=0  ||  Carry_Out=0  Output=1000
time= 670.0 ns  A=0101 + B=0101  K=0  ||  Carry_Out=0  Output=1010
time= 675.0 ns  A=0110 + B=0110  K=0  ||  Carry_Out=0  Output=1100
time= 680.0 ns  A=0111 + B=0111  K=0  ||  Carry_Out=0  Output=1110
time= 685.0 ns  A=1000 + B=1000  K=0  ||  Carry_Out=1  Output=0000
time= 690.0 ns  A=1001 + B=1001  K=0  ||  Carry_Out=1  Output=0010
time= 695.0 ns  A=1010 + B=1010  K=0  ||  Carry_Out=1  Output=0100
time= 700.0 ns  A=1011 + B=1011  K=0  ||  Carry_Out=1  Output=0110
time= 705.0 ns  A=1100 + B=1100  K=0  ||  Carry_Out=1  Output=1000
time= 710.0 ns  A=1101 + B=1101  K=0  ||  Carry_Out=1  Output=1010
time= 715.0 ns  A=1110 + B=1110  K=0  ||  Carry_Out=1  Output=1100
time= 720.0 ns  A=1111 + B=1111  K=0  ||  Carry_Out=1  Output=1110
time= 725.0 ns  A=0000 + B=0000  K=0  ||  Carry_Out=0  Output=0000
time= 730.0 ns  A=0001 + B=0001  K=0  ||  Carry_Out=0  Output=0010
time= 735.0 ns  A=0010 + B=0010  K=0  ||  Carry_Out=0  Output=0100
time= 740.0 ns  A=0011 + B=0011  K=0  ||  Carry_Out=0  Output=0110
time= 745.0 ns  A=0100 + B=0100  K=0  ||  Carry_Out=0  Output=1000
time= 750.0 ns  A=0101 + B=0101  K=0  ||  Carry_Out=0  Output=1010
time= 755.0 ns  A=0110 + B=0110  K=0  ||  Carry_Out=0  Output=1100
time= 760.0 ns  A=0111 + B=0111  K=0  ||  Carry_Out=0  Output=1110
time= 765.0 ns  A=1000 + B=1000  K=0  ||  Carry_Out=1  Output=0000
time= 770.0 ns  A=1001 + B=1001  K=0  ||  Carry_Out=1  Output=0010
time= 775.0 ns  A=1010 + B=1010  K=0  ||  Carry_Out=1  Output=0100
time= 780.0 ns  A=1011 + B=1011  K=0  ||  Carry_Out=1  Output=0110
time= 785.0 ns  A=1100 + B=1100  K=0  ||  Carry_Out=1  Output=1000
time= 790.0 ns  A=1101 + B=1101  K=0  ||  Carry_Out=1  Output=1010
time= 795.0 ns  A=1110 + B=1110  K=0  ||  Carry_Out=1  Output=1100
time= 800.0 ns  A=1111 + B=1111  K=0  ||  Carry_Out=1  Output=1110
time= 805.0 ns  A=0000 + B=0000  K=0  ||  Carry_Out=0  Output=0000
time= 810.0 ns  A=0001 + B=0001  K=0  ||  Carry_Out=0  Output=0010
time= 815.0 ns  A=0010 + B=0010  K=0  ||  Carry_Out=0  Output=0100
time= 820.0 ns  A=0011 + B=0011  K=0  ||  Carry_Out=0  Output=0110
time= 825.0 ns  A=0100 + B=0100  K=0  ||  Carry_Out=0  Output=1000
time= 830.0 ns  A=0101 + B=0101  K=0  ||  Carry_Out=0  Output=1010
time= 835.0 ns  A=0110 + B=0110  K=0  ||  Carry_Out=0  Output=1100
time= 840.0 ns  A=0111 + B=0111  K=0  ||  Carry_Out=0  Output=1110
time= 845.0 ns  A=1000 + B=1000  K=0  ||  Carry_Out=1  Output=0000
time= 850.0 ns  A=1001 + B=1001  K=0  ||  Carry_Out=1  Output=0010
time= 855.0 ns  A=1010 + B=1010  K=0  ||  Carry_Out=1  Output=0100
time= 860.0 ns  A=1011 + B=1011  K=0  ||  Carry_Out=1  Output=0110
time= 865.0 ns  A=1100 + B=1100  K=0  ||  Carry_Out=1  Output=1000
time= 870.0 ns  A=1101 + B=1101  K=0  ||  Carry_Out=1  Output=1010
time= 875.0 ns  A=1110 + B=1110  K=0  ||  Carry_Out=1  Output=1100
time= 880.0 ns  A=1111 + B=1111  K=0  ||  Carry_Out=1  Output=1110
time= 885.0 ns  A=0000 + B=0000  K=0  ||  Carry_Out=0  Output=0000
time= 890.0 ns  A=0001 + B=0001  K=0  ||  Carry_Out=0  Output=0010
time= 895.0 ns  A=0010 + B=0010  K=0  ||  Carry_Out=0  Output=0100
time= 900.0 ns  A=0011 + B=0011  K=0  ||  Carry_Out=0  Output=0110
time= 905.0 ns  A=0100 + B=0100  K=0  ||  Carry_Out=0  Output=1000
time= 910.0 ns  A=0101 + B=0101  K=0  ||  Carry_Out=0  Output=1010
time= 915.0 ns  A=0110 + B=0110  K=0  ||  Carry_Out=0  Output=1100
time= 920.0 ns  A=0111 + B=0111  K=0  ||  Carry_Out=0  Output=1110
time= 925.0 ns  A=1000 + B=1000  K=0  ||  Carry_Out=1  Output=0000
time= 930.0 ns  A=1001 + B=1001  K=0  ||  Carry_Out=1  Output=0010
time= 935.0 ns  A=1010 + B=1010  K=0  ||  Carry_Out=1  Output=0100
time= 940.0 ns  A=1011 + B=1011  K=0  ||  Carry_Out=1  Output=0110
time= 945.0 ns  A=1100 + B=1100  K=0  ||  Carry_Out=1  Output=1000
time= 950.0 ns  A=1101 + B=1101  K=0  ||  Carry_Out=1  Output=1010
time= 955.0 ns  A=1110 + B=1110  K=0  ||  Carry_Out=1  Output=1100
time= 960.0 ns  A=1111 + B=1111  K=0  ||  Carry_Out=1  Output=1110
time= 965.0 ns  A=0000 + B=0000  K=0  ||  Carry_Out=0  Output=0000
time= 970.0 ns  A=0001 + B=0001  K=0  ||  Carry_Out=0  Output=0010
time= 975.0 ns  A=0010 + B=0010  K=0  ||  Carry_Out=0  Output=0100
time= 980.0 ns  A=0011 + B=0011  K=0  ||  Carry_Out=0  Output=0110
time= 985.0 ns  A=0100 + B=0100  K=0  ||  Carry_Out=0  Output=1000
time= 990.0 ns  A=0101 + B=0101  K=0  ||  Carry_Out=0  Output=1010
time= 995.0 ns  A=0110 + B=0110  K=0  ||  Carry_Out=0  Output=1100
time=1000.0 ns  A=0111 + B=0111  K=0  ||  Carry_Out=0  Output=1110
time=1005.0 ns  A=1000 + B=1000  K=0  ||  Carry_Out=1  Output=0000
time=1010.0 ns  A=1001 + B=1001  K=0  ||  Carry_Out=1  Output=0010
time=1015.0 ns  A=1010 + B=1010  K=0  ||  Carry_Out=1  Output=0100
time=1020.0 ns  A=1011 + B=1011  K=0  ||  Carry_Out=1  Output=0110
time=1025.0 ns  A=1100 + B=1100  K=0  ||  Carry_Out=1  Output=1000
time=1030.0 ns  A=1101 + B=1101  K=0  ||  Carry_Out=1  Output=1010
time=1035.0 ns  A=1110 + B=1110  K=0  ||  Carry_Out=1  Output=1100
time=1040.0 ns  A=1111 + B=1111  K=0  ||  Carry_Out=1  Output=1110
time=1045.0 ns  A=0000 + B=0000  K=0  ||  Carry_Out=0  Output=0000
time=1050.0 ns  A=0001 + B=0001  K=0  ||  Carry_Out=0  Output=0010
time=1055.0 ns  A=0010 + B=0010  K=0  ||  Carry_Out=0  Output=0100
time=1060.0 ns  A=0011 + B=0011  K=0  ||  Carry_Out=0  Output=0110
time=1065.0 ns  A=0100 + B=0100  K=0  ||  Carry_Out=0  Output=1000
time=1070.0 ns  A=0101 + B=0101  K=0  ||  Carry_Out=0  Output=1010
time=1075.0 ns  A=0110 + B=0110  K=0  ||  Carry_Out=0  Output=1100
time=1080.0 ns  A=0111 + B=0111  K=0  ||  Carry_Out=0  Output=1110
time=1085.0 ns  A=1000 + B=1000  K=0  ||  Carry_Out=1  Output=0000
time=1090.0 ns  A=1001 + B=1001  K=0  ||  Carry_Out=1  Output=0010
time=1095.0 ns  A=1010 + B=1010  K=0  ||  Carry_Out=1  Output=0100
time=1100.0 ns  A=1011 + B=1011  K=0  ||  Carry_Out=1  Output=0110
time=1105.0 ns  A=1100 + B=1100  K=0  ||  Carry_Out=1  Output=1000
time=1110.0 ns  A=1101 + B=1101  K=0  ||  Carry_Out=1  Output=1010
time=1115.0 ns  A=1110 + B=1110  K=0  ||  Carry_Out=1  Output=1100
time=1120.0 ns  A=1111 + B=1111  K=0  ||  Carry_Out=1  Output=1110
time=1125.0 ns  A=0000 + B=0000  K=0  ||  Carry_Out=0  Output=0000
time=1130.0 ns  A=0001 + B=0001  K=0  ||  Carry_Out=0  Output=0010
time=1135.0 ns  A=0010 + B=0010  K=0  ||  Carry_Out=0  Output=0100
time=1140.0 ns  A=0011 + B=0011  K=0  ||  Carry_Out=0  Output=0110
time=1145.0 ns  A=0100 + B=0100  K=0  ||  Carry_Out=0  Output=1000
time=1150.0 ns  A=0101 + B=0101  K=0  ||  Carry_Out=0  Output=1010
time=1155.0 ns  A=0110 + B=0110  K=0  ||  Carry_Out=0  Output=1100
time=1160.0 ns  A=0111 + B=0111  K=0  ||  Carry_Out=0  Output=1110
time=1165.0 ns  A=1000 + B=1000  K=0  ||  Carry_Out=1  Output=0000
time=1170.0 ns  A=1001 + B=1001  K=0  ||  Carry_Out=1  Output=0010
time=1175.0 ns  A=1010 + B=1010  K=0  ||  Carry_Out=1  Output=0100
time=1180.0 ns  A=1011 + B=1011  K=0  ||  Carry_Out=1  Output=0110
time=1185.0 ns  A=1100 + B=1100  K=0  ||  Carry_Out=1  Output=1000
time=1190.0 ns  A=1101 + B=1101  K=0  ||  Carry_Out=1  Output=1010
time=1195.0 ns  A=1110 + B=1110  K=0  ||  Carry_Out=1  Output=1100
time=1200.0 ns  A=1111 + B=1111  K=0  ||  Carry_Out=1  Output=1110
time=1205.0 ns  A=0000 + B=0000  K=0  ||  Carry_Out=0  Output=0000
time=1210.0 ns  A=0001 + B=0001  K=0  ||  Carry_Out=0  Output=0010
time=1215.0 ns  A=0010 + B=0010  K=0  ||  Carry_Out=0  Output=0100
time=1220.0 ns  A=0011 + B=0011  K=0  ||  Carry_Out=0  Output=0110
time=1225.0 ns  A=0100 + B=0100  K=0  ||  Carry_Out=0  Output=1000
time=1230.0 ns  A=0101 + B=0101  K=0  ||  Carry_Out=0  Output=1010
time=1235.0 ns  A=0110 + B=0110  K=0  ||  Carry_Out=0  Output=1100
time=1240.0 ns  A=0111 + B=0111  K=0  ||  Carry_Out=0  Output=1110
time=1245.0 ns  A=1000 + B=1000  K=0  ||  Carry_Out=1  Output=0000
time=1250.0 ns  A=1001 + B=1001  K=0  ||  Carry_Out=1  Output=0010
time=1255.0 ns  A=1010 + B=1010  K=0  ||  Carry_Out=1  Output=0100
time=1260.0 ns  A=1011 + B=1011  K=0  ||  Carry_Out=1  Output=0110
time=1265.0 ns  A=1100 + B=1100  K=0  ||  Carry_Out=1  Output=1000
time=1270.0 ns  A=1101 + B=1101  K=0  ||  Carry_Out=1  Output=1010
time=1275.0 ns  A=1110 + B=1110  K=0  ||  Carry_Out=1  Output=1100
time=1280.0 ns  A=1111 + B=1111  K=0  ||  Carry_Out=1  Output=1110
time=1285.0 ns  A=0000 - B=0000  K=1  ||  Carry_Out=1  Output=0000
time=1290.0 ns  A=0001 - B=0001  K=1  ||  Carry_Out=1  Output=0000
time=1295.0 ns  A=0010 - B=0010  K=1  ||  Carry_Out=1  Output=0000
time=1300.0 ns  A=0011 - B=0011  K=1  ||  Carry_Out=1  Output=0000
time=1305.0 ns  A=0100 - B=0100  K=1  ||  Carry_Out=1  Output=0000
time=1310.0 ns  A=0101 - B=0101  K=1  ||  Carry_Out=1  Output=0000
time=1315.0 ns  A=0110 - B=0110  K=1  ||  Carry_Out=1  Output=0000
time=1320.0 ns  A=0111 - B=0111  K=1  ||  Carry_Out=1  Output=0000
time=1325.0 ns  A=1000 - B=1000  K=1  ||  Carry_Out=1  Output=0000
time=1330.0 ns  A=1001 - B=1001  K=1  ||  Carry_Out=1  Output=0000
time=1335.0 ns  A=1010 - B=1010  K=1  ||  Carry_Out=1  Output=0000
time=1340.0 ns  A=1011 - B=1011  K=1  ||  Carry_Out=1  Output=0000
time=1345.0 ns  A=1100 - B=1100  K=1  ||  Carry_Out=1  Output=0000
time=1350.0 ns  A=1101 - B=1101  K=1  ||  Carry_Out=1  Output=0000
time=1355.0 ns  A=1110 - B=1110  K=1  ||  Carry_Out=1  Output=0000
time=1360.0 ns  A=1111 - B=1111  K=1  ||  Carry_Out=1  Output=0000
time=1365.0 ns  A=0000 - B=0000  K=1  ||  Carry_Out=1  Output=0000
time=1370.0 ns  A=0001 - B=0001  K=1  ||  Carry_Out=1  Output=0000
time=1375.0 ns  A=0010 - B=0010  K=1  ||  Carry_Out=1  Output=0000
time=1380.0 ns  A=0011 - B=0011  K=1  ||  Carry_Out=1  Output=0000
time=1385.0 ns  A=0100 - B=0100  K=1  ||  Carry_Out=1  Output=0000
time=1390.0 ns  A=0101 - B=0101  K=1  ||  Carry_Out=1  Output=0000
time=1395.0 ns  A=0110 - B=0110  K=1  ||  Carry_Out=1  Output=0000
time=1400.0 ns  A=0111 - B=0111  K=1  ||  Carry_Out=1  Output=0000
time=1405.0 ns  A=1000 - B=1000  K=1  ||  Carry_Out=1  Output=0000
time=1410.0 ns  A=1001 - B=1001  K=1  ||  Carry_Out=1  Output=0000
time=1415.0 ns  A=1010 - B=1010  K=1  ||  Carry_Out=1  Output=0000
time=1420.0 ns  A=1011 - B=1011  K=1  ||  Carry_Out=1  Output=0000
time=1425.0 ns  A=1100 - B=1100  K=1  ||  Carry_Out=1  Output=0000
time=1430.0 ns  A=1101 - B=1101  K=1  ||  Carry_Out=1  Output=0000
time=1435.0 ns  A=1110 - B=1110  K=1  ||  Carry_Out=1  Output=0000
time=1440.0 ns  A=1111 - B=1111  K=1  ||  Carry_Out=1  Output=0000
time=1445.0 ns  A=0000 - B=0000  K=1  ||  Carry_Out=1  Output=0000
time=1450.0 ns  A=0001 - B=0001  K=1  ||  Carry_Out=1  Output=0000
time=1455.0 ns  A=0010 - B=0010  K=1  ||  Carry_Out=1  Output=0000
time=1460.0 ns  A=0011 - B=0011  K=1  ||  Carry_Out=1  Output=0000
time=1465.0 ns  A=0100 - B=0100  K=1  ||  Carry_Out=1  Output=0000
time=1470.0 ns  A=0101 - B=0101  K=1  ||  Carry_Out=1  Output=0000
time=1475.0 ns  A=0110 - B=0110  K=1  ||  Carry_Out=1  Output=0000
time=1480.0 ns  A=0111 - B=0111  K=1  ||  Carry_Out=1  Output=0000
time=1485.0 ns  A=1000 - B=1000  K=1  ||  Carry_Out=1  Output=0000
time=1490.0 ns  A=1001 - B=1001  K=1  ||  Carry_Out=1  Output=0000
time=1495.0 ns  A=1010 - B=1010  K=1  ||  Carry_Out=1  Output=0000
time=1500.0 ns  A=1011 - B=1011  K=1  ||  Carry_Out=1  Output=0000
time=1505.0 ns  A=1100 - B=1100  K=1  ||  Carry_Out=1  Output=0000
time=1510.0 ns  A=1101 - B=1101  K=1  ||  Carry_Out=1  Output=0000
time=1515.0 ns  A=1110 - B=1110  K=1  ||  Carry_Out=1  Output=0000
time=1520.0 ns  A=1111 - B=1111  K=1  ||  Carry_Out=1  Output=0000
time=1525.0 ns  A=0000 - B=0000  K=1  ||  Carry_Out=1  Output=0000
time=1530.0 ns  A=0001 - B=0001  K=1  ||  Carry_Out=1  Output=0000
time=1535.0 ns  A=0010 - B=0010  K=1  ||  Carry_Out=1  Output=0000
time=1540.0 ns  A=0011 - B=0011  K=1  ||  Carry_Out=1  Output=0000
time=1545.0 ns  A=0100 - B=0100  K=1  ||  Carry_Out=1  Output=0000
time=1550.0 ns  A=0101 - B=0101  K=1  ||  Carry_Out=1  Output=0000
time=1555.0 ns  A=0110 - B=0110  K=1  ||  Carry_Out=1  Output=0000
time=1560.0 ns  A=0111 - B=0111  K=1  ||  Carry_Out=1  Output=0000
time=1565.0 ns  A=1000 - B=1000  K=1  ||  Carry_Out=1  Output=0000
time=1570.0 ns  A=1001 - B=1001  K=1  ||  Carry_Out=1  Output=0000
time=1575.0 ns  A=1010 - B=1010  K=1  ||  Carry_Out=1  Output=0000
time=1580.0 ns  A=1011 - B=1011  K=1  ||  Carry_Out=1  Output=0000
time=1585.0 ns  A=1100 - B=1100  K=1  ||  Carry_Out=1  Output=0000
time=1590.0 ns  A=1101 - B=1101  K=1  ||  Carry_Out=1  Output=0000
time=1595.0 ns  A=1110 - B=1110  K=1  ||  Carry_Out=1  Output=0000
time=1600.0 ns  A=1111 - B=1111  K=1  ||  Carry_Out=1  Output=0000
time=1605.0 ns  A=0000 - B=0000  K=1  ||  Carry_Out=1  Output=0000
time=1610.0 ns  A=0001 - B=0001  K=1  ||  Carry_Out=1  Output=0000
time=1615.0 ns  A=0010 - B=0010  K=1  ||  Carry_Out=1  Output=0000
time=1620.0 ns  A=0011 - B=0011  K=1  ||  Carry_Out=1  Output=0000
time=1625.0 ns  A=0100 - B=0100  K=1  ||  Carry_Out=1  Output=0000
time=1630.0 ns  A=0101 - B=0101  K=1  ||  Carry_Out=1  Output=0000
time=1635.0 ns  A=0110 - B=0110  K=1  ||  Carry_Out=1  Output=0000
time=1640.0 ns  A=0111 - B=0111  K=1  ||  Carry_Out=1  Output=0000
time=1645.0 ns  A=1000 - B=1000  K=1  ||  Carry_Out=1  Output=0000
time=1650.0 ns  A=1001 - B=1001  K=1  ||  Carry_Out=1  Output=0000
time=1655.0 ns  A=1010 - B=1010  K=1  ||  Carry_Out=1  Output=0000
time=1660.0 ns  A=1011 - B=1011  K=1  ||  Carry_Out=1  Output=0000
time=1665.0 ns  A=1100 - B=1100  K=1  ||  Carry_Out=1  Output=0000
time=1670.0 ns  A=1101 - B=1101  K=1  ||  Carry_Out=1  Output=0000
time=1675.0 ns  A=1110 - B=1110  K=1  ||  Carry_Out=1  Output=0000
time=1680.0 ns  A=1111 - B=1111  K=1  ||  Carry_Out=1  Output=0000
time=1685.0 ns  A=0000 - B=0000  K=1  ||  Carry_Out=1  Output=0000
time=1690.0 ns  A=0001 - B=0001  K=1  ||  Carry_Out=1  Output=0000
time=1695.0 ns  A=0010 - B=0010  K=1  ||  Carry_Out=1  Output=0000
time=1700.0 ns  A=0011 - B=0011  K=1  ||  Carry_Out=1  Output=0000
time=1705.0 ns  A=0100 - B=0100  K=1  ||  Carry_Out=1  Output=0000
time=1710.0 ns  A=0101 - B=0101  K=1  ||  Carry_Out=1  Output=0000
time=1715.0 ns  A=0110 - B=0110  K=1  ||  Carry_Out=1  Output=0000
time=1720.0 ns  A=0111 - B=0111  K=1  ||  Carry_Out=1  Output=0000
time=1725.0 ns  A=1000 - B=1000  K=1  ||  Carry_Out=1  Output=0000
time=1730.0 ns  A=1001 - B=1001  K=1  ||  Carry_Out=1  Output=0000
time=1735.0 ns  A=1010 - B=1010  K=1  ||  Carry_Out=1  Output=0000
